…
``` r
brfss_data %>% 
  janitor::clean_names() %>%
  filter(year == 2002) %>%
  group_by(state) %>% 
  distinct(state, county) %>% 
  summarize(n = n()) %>% 
  arrange(desc(n))
```

    ## # A tibble: 49 x 2
    ##    state     n
    ##    <chr> <int>
    ##  1 PA       10
    ##  2 MA        8
    ##  3 NJ        8
    ##  4 CT        7
    ##  5 FL        7
    ##  6 NC        7
    ##  7 MD        6
    ##  8 NH        5
    ##  9 NY        5
    ## 10 UT        5
    ## # ... with 39 more rows
…
``` r
aisle = nrow(distinct(instacart_data, aisle))
```

There are 134 aisles.

``` r
instacart_data %>% 
  group_by(aisle_id, aisle) %>%
  summarize(n = n()) %>% 
  arrange(desc(n))
```

    ## # A tibble: 134 x 3
    ## # Groups:   aisle_id [134]
    ##    aisle_id aisle                              n
    ##       <int> <chr>                          <int>
    ##  1       83 fresh vegetables              150609
    ##  2       24 fresh fruits                  150473
    ##  3      123 packaged vegetables fruits     78493
    ##  4      120 yogurt                         55240
    ##  5       21 packaged cheese                41699
    ##  6      115 water seltzer sparkling water  36617
    ##  7       84 milk                           32644
    ##  8      107 chips pretzels                 31269
    ##  9       91 soy lactosefree                26240
    ## 10      112 bread                          23635
    ## # ... with 124 more rows
…
This data has 2595176 rows/observations and 7 columns/variables. Some key variables are: id(weather stattion ID, date (date of observation), prcp (Precipitation (tenths of mm), snow (Snowfall (mm)), and tmax and tmin (max and minimum temperatures).

For snowfall, what are the most commonly observed values? Why?

``` r
  ny_noaa_data %>% 
  count(snow)
```

    ## # A tibble: 282 x 2
    ##     snow       n
    ##    <int>   <int>
    ##  1   -13       1
    ##  2     0 2008508
    ##  3     3    8790
    ##  4     5    9748
    ##  5     8    9962
    ##  6    10    5106
    ##  7    13   23095
    ##  8    15    3672
    ##  9    18    3226
    ## 10    20    4797
    ## # ... with 272 more rows
…
